\relax 
\providecommand\hyper@newdestlabel[2]{}
\catcode `"\active 
\providecommand\HyperFirstAtBeginDocument{\AtBeginDocument}
\HyperFirstAtBeginDocument{\ifx\hyper@anchor\@undefined
\global\let\oldcontentsline\contentsline
\gdef\contentsline#1#2#3#4{\oldcontentsline{#1}{#2}{#3}}
\global\let\oldnewlabel\newlabel
\gdef\newlabel#1#2{\newlabelxx{#1}#2}
\gdef\newlabelxx#1#2#3#4#5#6{\oldnewlabel{#1}{{#2}{#3}}}
\AtEndDocument{\ifx\hyper@anchor\@undefined
\let\contentsline\oldcontentsline
\let\newlabel\oldnewlabel
\fi}
\fi}
\global\let\hyper@last\relax 
\gdef\HyperFirstAtBeginDocument#1{#1}
\providecommand\HyField@AuxAddToFields[1]{}
\providecommand\HyField@AuxAddToCoFields[2]{}
\babel@aux{polish}{}
\providecommand \oddpage@label [2]{}
\babel@aux{polish}{}
\citation{RemoveMetadata}
\citation{FacebookMetadata}
\@writefile{toc}{\contentsline {chapter}{\numberline {1}Wst\IeC {\k e}p}{1}{chapter.1}\protected@file@percent }
\@writefile{lof}{\addvspace {10\p@ }}
\@writefile{lot}{\addvspace {10\p@ }}
\@writefile{loa}{\addvspace {10\p@ }}
\@writefile{toc}{\contentsline {chapter}{\numberline {2}Analiza problemu}{3}{chapter.2}\protected@file@percent }
\@writefile{lof}{\addvspace {10\p@ }}
\@writefile{lot}{\addvspace {10\p@ }}
\@writefile{loa}{\addvspace {10\p@ }}
\newlabel{ch:analiza}{{2}{3}{Analiza problemu}{chapter.2}{}}
\newlabel{rozdzial1}{{2}{3}{Analiza problemu}{chapter.2}{}}
\@writefile{toc}{\contentsline {section}{\numberline {2.1}Wst\IeC {\k e}p teoretczny}{3}{section.2.1}\protected@file@percent }
\@writefile{toc}{\contentsline {subsection}{\numberline {2.1.1}Sieci neuronowe}{3}{subsection.2.1.1}\protected@file@percent }
\@writefile{toc}{\contentsline {subsubsection}{Propagacja wsteczna}{3}{subsubsection*.1}\protected@file@percent }
\@writefile{toc}{\contentsline {subsubsection}{Funkcja aktywacji}{4}{subsubsection*.2}\protected@file@percent }
\@writefile{toc}{\contentsline {subsubsection}{Przetrenowanie}{4}{subsubsection*.3}\protected@file@percent }
\citation{Adam}
\@writefile{toc}{\contentsline {subsubsection}{Funkcja straty}{5}{subsubsection*.4}\protected@file@percent }
\@writefile{toc}{\contentsline {subsubsection}{Optymalizator}{5}{subsubsection*.5}\protected@file@percent }
\@writefile{toc}{\contentsline {subsubsection}{Przeniesienie uczenia (transfer learning)}{5}{subsubsection*.6}\protected@file@percent }
\@writefile{toc}{\contentsline {subsection}{\numberline {2.1.2}Konwolucyjne sieci neuronowe}{5}{subsection.2.1.2}\protected@file@percent }
\citation{Lens-aberration}
\citation{Estimation-of-lens-distortion}
\citation{Sensor-noise}
\citation{Resampling-evidence}
\citation{GLCM}
\citation{Database}
\@writefile{toc}{\contentsline {section}{\numberline {2.2}Dotychczasowe rozwi\IeC {\k a}zania}{6}{section.2.2}\protected@file@percent }
\@writefile{toc}{\contentsline {subsection}{\numberline {2.2.1}Tradycyjne podej\IeC {\'s}cia}{6}{subsection.2.2.1}\protected@file@percent }
\citation{First-deep-learning}
\citation{Best-deep-learning}
\citation{Database}
\@writefile{toc}{\contentsline {subsection}{\numberline {2.2.2}Podej\IeC {\'s}cia zwi\IeC {\k a}zane z g\IeC {\l }\IeC {\k e}bokim uczeniem}{7}{subsection.2.2.2}\protected@file@percent }
\@writefile{toc}{\contentsline {section}{\numberline {2.3}Przedmiot pracy}{7}{section.2.3}\protected@file@percent }
\citation{DenseNet}
\citation{ResNet}
\citation{ResNet}
\citation{ResNet}
\citation{ResNet}
\citation{DenseNet}
\citation{DenseNet}
\citation{DenseNet}
\@writefile{toc}{\contentsline {chapter}{\numberline {3}Opis wykorzystywanych metod}{9}{chapter.3}\protected@file@percent }
\@writefile{lof}{\addvspace {10\p@ }}
\@writefile{lot}{\addvspace {10\p@ }}
\@writefile{loa}{\addvspace {10\p@ }}
\newlabel{ch:opis}{{3}{9}{Opis wykorzystywanych metod}{chapter.3}{}}
\@writefile{toc}{\contentsline {section}{\numberline {3.1}Architektura sieci neuronowej}{9}{section.3.1}\protected@file@percent }
\@writefile{toc}{\contentsline {subsection}{\numberline {3.1.1}ResNet}{9}{subsection.3.1.1}\protected@file@percent }
\@writefile{lof}{\contentsline {figure}{\numberline {3.1}{\ignorespaces {Przyk\IeC {\l }ad resblocka pozwalaj\IeC {\k a}cego na pomijanie po\IeC {\l }\IeC {\k a}cze\IeC {\'n}. \cite  {ResNet}}\relax }}{9}{figure.caption.7}\protected@file@percent }
\providecommand*\caption@xref[2]{\@setref\relax\@undefined{#1}}
\newlabel{czynnosci_GD}{{3.1}{9}{{Przykład resblocka pozwalającego na pomijanie połączeń. \cite {ResNet}}\relax }{figure.caption.7}{}}
\@writefile{toc}{\contentsline {subsection}{\numberline {3.1.2}DenseNet}{9}{subsection.3.1.2}\protected@file@percent }
\citation{Mish}
\citation{Mish}
\citation{Selective-backprop}
\@writefile{lof}{\contentsline {figure}{\numberline {3.2}{\ignorespaces { Pi\IeC {\k e}ciowarstwowy przyk\IeC {\l }ad dense blocka - struktury wykorzystywanej w architekturze DenseNet \cite  {DenseNet}.}\relax }}{10}{figure.caption.8}\protected@file@percent }
\newlabel{czynnosci_GD}{{3.2}{10}{{ Pięciowarstwowy przykład dense blocka - struktury wykorzystywanej w architekturze DenseNet \cite {DenseNet}.}\relax }{figure.caption.8}{}}
\@writefile{toc}{\contentsline {subsection}{\numberline {3.1.3}Funkcja aktywacji - Mish}{10}{subsection.3.1.3}\protected@file@percent }
\@writefile{lof}{\contentsline {figure}{\numberline {3.3}{\ignorespaces Por\IeC {\'o}wnanie wykres\IeC {\'o}w funkcji Mish i ReLU.\relax }}{10}{figure.caption.9}\protected@file@percent }
\newlabel{czynnosci_GD}{{3.3}{10}{Porównanie wykresów funkcji Mish i ReLU.\relax }{figure.caption.9}{}}
\citation{Database}
\citation{Fit1Cycle}
\citation{LR-Momentum}
\citation{LR-Momentum}
\@writefile{toc}{\contentsline {section}{\numberline {3.2}Selektywna wsteczna propagacja}{11}{section.3.2}\protected@file@percent }
\@writefile{toc}{\contentsline {section}{\numberline {3.3}Operacje wykonywane na danych}{11}{section.3.3}\protected@file@percent }
\@writefile{toc}{\contentsline {subsection}{\numberline {3.3.1}Zbi\IeC {\'o}r danych}{11}{subsection.3.3.1}\protected@file@percent }
\@writefile{toc}{\contentsline {subsection}{\numberline {3.3.2}Modyfikacje na zbiorze treningowym}{11}{subsection.3.3.2}\protected@file@percent }
\@writefile{toc}{\contentsline {section}{\numberline {3.4}Polityka jednego cyklu}{11}{section.3.4}\protected@file@percent }
\@writefile{lof}{\contentsline {figure}{\numberline {3.4}{\ignorespaces Przyk\IeC {\l }ad warto\IeC {\'s}ci wsp\IeC {\'o}\IeC {\l }czynnik\IeC {\'o}w nauki (wykres z lewej strony) i p\IeC {\k e}du (wykres z prawej strony). \cite  {LR-Momentum}\relax }}{12}{figure.caption.10}\protected@file@percent }
\newlabel{pic:one_cycle_policy}{{3.4}{12}{Przykład wartości współczynników nauki (wykres z lewej strony) i pędu (wykres z prawej strony). \cite {LR-Momentum}\relax }{figure.caption.10}{}}
\@writefile{toc}{\contentsline {chapter}{\numberline {4}Projekt systemu i implementacja}{13}{chapter.4}\protected@file@percent }
\@writefile{lof}{\addvspace {10\p@ }}
\@writefile{lot}{\addvspace {10\p@ }}
\@writefile{loa}{\addvspace {10\p@ }}
\newlabel{ch:system}{{4}{13}{Projekt systemu i implementacja}{chapter.4}{}}
\@writefile{toc}{\contentsline {section}{\numberline {4.1}Projekt systemu}{13}{section.4.1}\protected@file@percent }
\@writefile{toc}{\contentsline {subsection}{\numberline {4.1.1}Za\IeC {\l }o\IeC {\.z}enia i architektura systemu}{13}{subsection.4.1.1}\protected@file@percent }
\@writefile{lof}{\contentsline {figure}{\numberline {4.1}{\ignorespaces Diagram prezentuj\IeC {\k a}cy podstawow\IeC {\k a} architektur\IeC {\k e} klient-serwer.\relax }}{13}{figure.caption.11}\protected@file@percent }
\newlabel{czynnosci_GD}{{4.1}{13}{Diagram prezentujący podstawową architekturę klient-serwer.\relax }{figure.caption.11}{}}
\@writefile{toc}{\contentsline {subsection}{\numberline {4.1.2}Klient}{13}{subsection.4.1.2}\protected@file@percent }
\@writefile{toc}{\contentsline {subsection}{\numberline {4.1.3}Serwer}{13}{subsection.4.1.3}\protected@file@percent }
\citation{ASGI}
\citation{Tensorflow}
\citation{PyTorch}
\@writefile{toc}{\contentsline {section}{\numberline {4.2}Implementacja systemu}{14}{section.4.2}\protected@file@percent }
\@writefile{toc}{\contentsline {subsection}{\numberline {4.2.1}Klient}{14}{subsection.4.2.1}\protected@file@percent }
\@writefile{toc}{\contentsline {subsection}{\numberline {4.2.2}Serwer}{14}{subsection.4.2.2}\protected@file@percent }
\@writefile{toc}{\contentsline {section}{\numberline {4.3}Trening sieci neuronowej}{14}{section.4.3}\protected@file@percent }
\@writefile{toc}{\contentsline {subsection}{\numberline {4.3.1}Inicjalizacja i zamra\IeC {\.z}anie}{15}{subsection.4.3.1}\protected@file@percent }
\@writefile{toc}{\contentsline {subsection}{\numberline {4.3.2}Wyb\IeC {\'o}r hiperparametr\IeC {\'o}w}{15}{subsection.4.3.2}\protected@file@percent }
\@writefile{lof}{\contentsline {figure}{\numberline {4.2}{\ignorespaces Wykres prezentuj\IeC {\k a}cy wp\IeC {\l }yw learning rate na warto\IeC {\'s}\IeC {\'c} funkcji straty.\relax }}{15}{figure.caption.12}\protected@file@percent }
\newlabel{pic:learning_rate}{{4.2}{15}{Wykres prezentujący wpływ learning rate na wartość funkcji straty.\relax }{figure.caption.12}{}}
\citation{Database}
\@writefile{toc}{\contentsline {subsection}{\numberline {4.3.3}Trening}{16}{subsection.4.3.3}\protected@file@percent }
\citation{Ubuntu}
\citation{Docker}
\@writefile{toc}{\contentsline {chapter}{\numberline {5}Instrukcja u\IeC {\.z}ytkowania}{17}{chapter.5}\protected@file@percent }
\@writefile{lof}{\addvspace {10\p@ }}
\@writefile{lot}{\addvspace {10\p@ }}
\@writefile{loa}{\addvspace {10\p@ }}
\newlabel{ch:instrukcja}{{5}{17}{Instrukcja użytkowania}{chapter.5}{}}
\@writefile{toc}{\contentsline {section}{\numberline {5.1}Instalacja aplikacji}{17}{section.5.1}\protected@file@percent }
\@writefile{toc}{\contentsline {section}{\numberline {5.2}Obs\IeC {\l }uga aplikacji}{17}{section.5.2}\protected@file@percent }
\@writefile{lof}{\contentsline {figure}{\numberline {5.1}{\ignorespaces Wygl\IeC {\k a}d startowej strony aplikacji.\relax }}{17}{figure.caption.13}\protected@file@percent }
\newlabel{pic:start_screen}{{5.1}{17}{Wygląd startowej strony aplikacji.\relax }{figure.caption.13}{}}
\@writefile{lof}{\contentsline {figure}{\numberline {5.2}{\ignorespaces Przyk\IeC {\l }adowy ekran wyboru zdj\IeC {\k e}cia.\relax }}{18}{figure.caption.14}\protected@file@percent }
\newlabel{pic:choose_img}{{5.2}{18}{Przykładowy ekran wyboru zdjęcia.\relax }{figure.caption.14}{}}
\@writefile{lof}{\contentsline {figure}{\numberline {5.3}{\ignorespaces Wygl\IeC {\k a}d strony z miniatur\IeC {\k a} zdj\IeC {\k e}cia.\relax }}{18}{figure.caption.15}\protected@file@percent }
\newlabel{pic:chosen_pic}{{5.3}{18}{Wygląd strony z miniaturą zdjęcia.\relax }{figure.caption.15}{}}
\citation{fastai}
\citation{Database}
\@writefile{lof}{\contentsline {figure}{\numberline {5.4}{\ignorespaces Wygl\IeC {\k a}d strony z predykcj\IeC {\k a} zdj\IeC {\k e}cia.\relax }}{19}{figure.caption.16}\protected@file@percent }
\newlabel{pic:result}{{5.4}{19}{Wygląd strony z predykcją zdjęcia.\relax }{figure.caption.16}{}}
\@writefile{toc}{\contentsline {section}{\numberline {5.3}Przeprowadzenie treningu}{19}{section.5.3}\protected@file@percent }
\citation{GoogleColaboratory}
\citation{Resnext}
\citation{Wideresnet}
\citation{ResNet}
\@writefile{toc}{\contentsline {chapter}{\numberline {6}Wyniki}{21}{chapter.6}\protected@file@percent }
\@writefile{lof}{\addvspace {10\p@ }}
\@writefile{lot}{\addvspace {10\p@ }}
\@writefile{loa}{\addvspace {10\p@ }}
\newlabel{ch:wyniki}{{6}{21}{Wyniki}{chapter.6}{}}
\@writefile{toc}{\contentsline {section}{\numberline {6.1}Testy treningu sieci neuronowych}{21}{section.6.1}\protected@file@percent }
\@writefile{toc}{\contentsline {subsection}{\numberline {6.1.1}Testy architektur}{21}{subsection.6.1.1}\protected@file@percent }
\@writefile{lof}{\contentsline {figure}{\numberline {6.1}{\ignorespaces Tabela prezentuj\IeC {\k a}ca wyniki treningu r\IeC {\'o}\IeC {\.z}nych arcchitektur.\relax }}{21}{figure.caption.17}\protected@file@percent }
\newlabel{tab:arch}{{6.1}{21}{Tabela prezentująca wyniki treningu różnych arcchitektur.\relax }{figure.caption.17}{}}
\@writefile{lof}{\contentsline {figure}{\numberline {6.2}{\ignorespaces Tabela prezentuj\IeC {\k a}ca por\IeC {\'o}wnanie r\IeC {\'o}\IeC {\.z}nych funkcji aktywacji.\relax }}{22}{figure.caption.18}\protected@file@percent }
\newlabel{tab:act}{{6.2}{22}{Tabela prezentująca porównanie różnych funkcji aktywacji.\relax }{figure.caption.18}{}}
\@writefile{toc}{\contentsline {subsection}{\numberline {6.1.2}Testy precyzji szesnastobitowej}{22}{subsection.6.1.2}\protected@file@percent }
\@writefile{lof}{\contentsline {figure}{\numberline {6.3}{\ignorespaces Tabela prezentuj\IeC {\k a}ca por\IeC {\'o}wnanie treningu w r\IeC {\'o}\IeC {\.z}nych precyzjach.\relax }}{22}{figure.caption.19}\protected@file@percent }
\newlabel{tab:fp16}{{6.3}{22}{Tabela prezentująca porównanie treningu w różnych precyzjach.\relax }{figure.caption.19}{}}
\@writefile{toc}{\contentsline {section}{\numberline {6.2}Wp\IeC {\l }yw modyfikacji danych na dok\IeC {\l }adno\IeC {\'s}\IeC {\'c} sieci}{22}{section.6.2}\protected@file@percent }
\@writefile{toc}{\contentsline {subsection}{\numberline {6.2.1}Jasno\IeC {\'s}\IeC {\'c}}{23}{subsection.6.2.1}\protected@file@percent }
\@writefile{lof}{\contentsline {figure}{\numberline {6.4}{\ignorespaces Wp\IeC {\l }yw zmiany jasno\IeC {\'s}ci na obraz.\relax }}{23}{figure.caption.20}\protected@file@percent }
\newlabel{pic:brightness}{{6.4}{23}{Wpływ zmiany jasności na obraz.\relax }{figure.caption.20}{}}
\@writefile{lof}{\contentsline {figure}{\numberline {6.5}{\ignorespaces Wykres prezentuj\IeC {\k a}cy zale\IeC {\.z}no\IeC {\'s}\IeC {\'c} dok\IeC {\l }adno\IeC {\'s}ci od warto\IeC {\'s}ci zmiany.\relax }}{23}{figure.caption.21}\protected@file@percent }
\newlabel{gr:brightness}{{6.5}{23}{Wykres prezentujący zależność dokładności od wartości zmiany.\relax }{figure.caption.21}{}}
\@writefile{toc}{\contentsline {subsection}{\numberline {6.2.2}Kontrast}{24}{subsection.6.2.2}\protected@file@percent }
\@writefile{lof}{\contentsline {figure}{\numberline {6.6}{\ignorespaces Wp\IeC {\l }yw kontrastu na wygl\IeC {\k a}d zdj\IeC {\k e}\IeC {\'c}.\relax }}{24}{figure.caption.22}\protected@file@percent }
\newlabel{pic:contrast}{{6.6}{24}{Wpływ kontrastu na wygląd zdjęć.\relax }{figure.caption.22}{}}
\@writefile{lof}{\contentsline {figure}{\numberline {6.7}{\ignorespaces Wykres prezentuj\IeC {\k a}cy zale\IeC {\.z}no\IeC {\'s}\IeC {\'c} dok\IeC {\l }adno\IeC {\'s}ci od zmian kontrastu.\relax }}{24}{figure.caption.23}\protected@file@percent }
\newlabel{gr:contrast}{{6.7}{24}{Wykres prezentujący zależność dokładności od zmian kontrastu.\relax }{figure.caption.23}{}}
\@writefile{toc}{\contentsline {subsection}{\numberline {6.2.3}Zbli\IeC {\.z}enia}{25}{subsection.6.2.3}\protected@file@percent }
\@writefile{lof}{\contentsline {figure}{\numberline {6.8}{\ignorespaces Wp\IeC {\l }yw zmiany skali na wielko\IeC {\'s}\IeC {\'c} obrazu.\relax }}{25}{figure.caption.24}\protected@file@percent }
\newlabel{pic:zoom}{{6.8}{25}{Wpływ zmiany skali na wielkość obrazu.\relax }{figure.caption.24}{}}
\@writefile{lof}{\contentsline {figure}{\numberline {6.9}{\ignorespaces Wykres prezentuj\IeC {\k a}cy zale\IeC {\.z}no\IeC {\'s}\IeC {\'c} dok\IeC {\l }adno\IeC {\'s}ci od skali zbli\IeC {\.z}enia.\relax }}{25}{figure.caption.25}\protected@file@percent }
\newlabel{gr:zoom}{{6.9}{25}{Wykres prezentujący zależność dokładności od skali zbliżenia.\relax }{figure.caption.25}{}}
\@writefile{toc}{\contentsline {subsection}{\numberline {6.2.4}Losowe zbli\IeC {\.z}enia}{26}{subsection.6.2.4}\protected@file@percent }
\@writefile{lof}{\contentsline {figure}{\numberline {6.10}{\ignorespaces Losowe zbli\IeC {\.z}enia w skali od 0.75 do 2.\relax }}{26}{figure.caption.26}\protected@file@percent }
\newlabel{pic:zoom_crop}{{6.10}{26}{Losowe zbliżenia w skali od 0.75 do 2.\relax }{figure.caption.26}{}}
\@writefile{lof}{\contentsline {figure}{\numberline {6.11}{\ignorespaces Wykres prezentuj\IeC {\k a}cy zale\IeC {\.z}no\IeC {\'s}\IeC {\'c} dok\IeC {\l }adno\IeC {\'s}ci od skali losowych zbli\IeC {\.z}e\IeC {\'n}.\relax }}{26}{figure.caption.27}\protected@file@percent }
\newlabel{gr:zoom_crop}{{6.11}{26}{Wykres prezentujący zależność dokładności od skali losowych zbliżeń.\relax }{figure.caption.27}{}}
\@writefile{toc}{\contentsline {subsection}{\numberline {6.2.5}Rotacje}{27}{subsection.6.2.5}\protected@file@percent }
\@writefile{lof}{\contentsline {figure}{\numberline {6.12}{\ignorespaces Wp\IeC {\l }yw r\IeC {\'o}\IeC {\.z}nych rotacji na zdjecia.\relax }}{27}{figure.caption.28}\protected@file@percent }
\newlabel{pic:rotate}{{6.12}{27}{Wpływ różnych rotacji na zdjecia.\relax }{figure.caption.28}{}}
\@writefile{lof}{\contentsline {figure}{\numberline {6.13}{\ignorespaces Wykres prezentuj\IeC {\k a}cy zale\IeC {\.z}no\IeC {\'s}\IeC {\'c} dok\IeC {\l }adno\IeC {\'s}ci od rotacji.\relax }}{27}{figure.caption.29}\protected@file@percent }
\newlabel{gr:rotate}{{6.13}{27}{Wykres prezentujący zależność dokładności od rotacji.\relax }{figure.caption.29}{}}
\@writefile{toc}{\contentsline {subsection}{\numberline {6.2.6}Kompresja JPEG}{28}{subsection.6.2.6}\protected@file@percent }
\@writefile{lof}{\contentsline {figure}{\numberline {6.14}{\ignorespaces Wp\IeC {\l }yw stopnia kompresji na jako\IeC {\'s}\IeC {\'c} zdjecia.\relax }}{28}{figure.caption.30}\protected@file@percent }
\newlabel{pic:compression}{{6.14}{28}{Wpływ stopnia kompresji na jakość zdjecia.\relax }{figure.caption.30}{}}
\@writefile{lof}{\contentsline {figure}{\numberline {6.15}{\ignorespaces Wykres prezentuj\IeC {\k a}cy zale\IeC {\.z}no\IeC {\'s}\IeC {\'c} dok\IeC {\l }adno\IeC {\'s}ci od stopnia kompresji JPEG.\relax }}{28}{figure.caption.31}\protected@file@percent }
\newlabel{gr:compression}{{6.15}{28}{Wykres prezentujący zależność dokładności od stopnia kompresji JPEG.\relax }{figure.caption.31}{}}
\@writefile{toc}{\contentsline {subsection}{\numberline {6.2.7}Wypaczenie perspektywy}{29}{subsection.6.2.7}\protected@file@percent }
\@writefile{lof}{\contentsline {figure}{\numberline {6.16}{\ignorespaces Wp\IeC {\l }yw zmiany perspektywy na wygl\IeC {\k a}d zdj\IeC {\k e}cia.\relax }}{29}{figure.caption.32}\protected@file@percent }
\newlabel{pic:warp}{{6.16}{29}{Wpływ zmiany perspektywy na wygląd zdjęcia.\relax }{figure.caption.32}{}}
\@writefile{lof}{\contentsline {figure}{\numberline {6.17}{\ignorespaces Wykres prezentuj\IeC {\k a}cy zale\IeC {\.z}no\IeC {\'s}\IeC {\'c} dok\IeC {\l }adno\IeC {\'s}ci od stopnia zmiany perspektywy.\relax }}{29}{figure.caption.33}\protected@file@percent }
\newlabel{gr:warp}{{6.17}{29}{Wykres prezentujący zależność dokładności od stopnia zmiany perspektywy.\relax }{figure.caption.33}{}}
\citation{Selective-backprop}
\citation{BatchLossFilter}
\citation{Heatmap}
\@writefile{toc}{\contentsline {subsection}{\numberline {6.2.8}Podsumowanie manipulacji danych}{30}{subsection.6.2.8}\protected@file@percent }
\@writefile{toc}{\contentsline {section}{\numberline {6.3}Selektywna wsteczna propagacja}{30}{section.6.3}\protected@file@percent }
\@writefile{lof}{\contentsline {figure}{\numberline {6.18}{\ignorespaces Tabela prezentuj\IeC {\k a}ca wyniki treningu przed i po wkorzystaniu selektywnej wstecznej propagacji.\relax }}{30}{figure.caption.34}\protected@file@percent }
\newlabel{tab:select}{{6.18}{30}{Tabela prezentująca wyniki treningu przed i po wkorzystaniu selektywnej wstecznej propagacji.\relax }{figure.caption.34}{}}
\@writefile{toc}{\contentsline {section}{\numberline {6.4}Miejsca uwagi sieci neuronowej}{30}{section.6.4}\protected@file@percent }
\@writefile{lof}{\contentsline {figure}{\numberline {6.19}{\ignorespaces Zdj\IeC {\k e}cia prezentuj\IeC {\k a}ce mapy atencji sieci neuronowej dla r\IeC {\'o}\IeC {\.z}nych aparat\IeC {\'o}w.\relax }}{30}{figure.caption.35}\protected@file@percent }
\newlabel{pic:heatmap1}{{6.19}{30}{Zdjęcia prezentujące mapy atencji sieci neuronowej dla różnych aparatów.\relax }{figure.caption.35}{}}
\citation{Database}
\citation{GCP}
\@writefile{lof}{\contentsline {figure}{\numberline {6.20}{\ignorespaces Zdj\IeC {\k e}cia prezentuj\IeC {\k a}ce mapy atencji sieci neuronowej dla marki Nikon.\relax }}{31}{figure.caption.36}\protected@file@percent }
\newlabel{pic:heatmap2}{{6.20}{31}{Zdjęcia prezentujące mapy atencji sieci neuronowej dla marki Nikon.\relax }{figure.caption.36}{}}
\@writefile{toc}{\contentsline {section}{\numberline {6.5}Rezultaty finalnego treningu}{31}{section.6.5}\protected@file@percent }
\@writefile{lof}{\contentsline {figure}{\numberline {6.21}{\ignorespaces Tabela prezentuj\IeC {\k a}ca wyniki finalnego treningu (format czasu $\mathrm  {hh:mm:ss}$).\relax }}{31}{figure.caption.37}\protected@file@percent }
\newlabel{tab:final_results}{{6.21}{31}{Tabela prezentująca wyniki finalnego treningu (format czasu $\mathrm {hh:mm:ss}$).\relax }{figure.caption.37}{}}
\@writefile{toc}{\contentsline {chapter}{\numberline {7}Podsumowanie}{33}{chapter.7}\protected@file@percent }
\@writefile{lof}{\addvspace {10\p@ }}
\@writefile{lot}{\addvspace {10\p@ }}
\@writefile{loa}{\addvspace {10\p@ }}
\newlabel{ch:podsumowanie}{{7}{33}{Podsumowanie}{chapter.7}{}}
\@writefile{toc}{\contentsline {section}{\numberline {7.1}Wnioski}{33}{section.7.1}\protected@file@percent }
\@writefile{toc}{\contentsline {section}{\numberline {7.2}Opis ogranicze\IeC {\'n} algorytmu}{33}{section.7.2}\protected@file@percent }
\@writefile{toc}{\contentsline {section}{\numberline {7.3}Mo\IeC {\.z}liwe modyfikacje}{33}{section.7.3}\protected@file@percent }
\citation{AutoML}
\bibstyle{plabbrv}
\bibdata{literatura}
\bibcite{ASGI}{1}
\bibcite{Database}{2}
\bibcite{FacebookMetadata}{3}
\bibcite{fastai}{4}
\bibcite{GCP}{5}
\bibcite{GoogleColaboratory}{6}
\bibcite{AutoML}{7}
\bibcite{PyTorch}{8}
\bibcite{Tensorflow}{9}
\bibcite{RemoveMetadata}{10}
\bibcite{Ubuntu}{11}
\bibcite{Heatmap}{12}
\bibcite{Lens-aberration}{13}
\bibcite{Docker}{14}
\bibcite{LR-Momentum}{15}
\bibcite{Estimation-of-lens-distortion}{16}
\bibcite{ResNet}{17}
\bibcite{DenseNet}{18}
\bibcite{Selective-backprop}{19}
\bibcite{Adam}{20}
\bibcite{GLCM}{21}
\bibcite{Best-deep-learning}{22}
\bibcite{Sensor-noise}{23}
\bibcite{Mish}{24}
\bibcite{BatchLossFilter}{25}
\bibcite{Resampling-evidence}{26}
\bibcite{Fit1Cycle}{27}
\bibcite{First-deep-learning}{28}
\bibcite{Resnext}{29}
\bibcite{Wideresnet}{30}
\@writefile{toc}{\contentsline {chapter}{Bibliografia}{36}{chapter*.38}\protected@file@percent }
\@writefile{toc}{\contentsline {chapter}{\numberline {A}Zawarto\IeC {\'s}\IeC {\'c} p\IeC {\l }yty CD}{37}{appendix.A}\protected@file@percent }
\@writefile{lof}{\addvspace {10\p@ }}
\@writefile{lot}{\addvspace {10\p@ }}
\@writefile{loa}{\addvspace {10\p@ }}
\newlabel{plytaCD}{{A}{37}{Zawartość płyty CD}{appendix.A}{}}
